<svg width="375" height="268" viewBox="0 0 375 268" fill="none" xmlns="http://www.w3.org/2000/svg">
<path fill-rule="evenodd" clip-rule="evenodd" d="M375 183.788C291.184 237.111 191.699 268 85 268C56.0806 268 27.6911 265.731 0 261.361V0H375V183.788Z" fill="url(#paint0_linear)"/>
<defs>
<linearGradient id="paint0_linear" x1="191.197" y1="394.074" x2="439.755" y2="46.2782" gradientUnits="userSpaceOnUse">
<stop stop-color="#0098A0"/>
<stop offset="1" stop-color="#00DC95"/>
</linearGradient>
</defs>
</svg>
