<svg width="375" height="268" viewBox="0 0 375 268" fill="none" xmlns="http://www.w3.org/2000/svg">
<path fill-rule="evenodd" clip-rule="evenodd" d="M375 183.788C291.184 237.111 191.699 268 85 268C56.0806 268 27.6911 265.731 0 261.361L0 0H375V183.788Z" fill="url(#paint0_linear)"/>
<defs>
<linearGradient id="paint0_linear" x1="185.463" y1="400.134" x2="435.878" y2="49.74" gradientUnits="userSpaceOnUse">
<stop stop-color="#0082A1"/>
<stop offset="1" stop-color="#00DDC9"/>
</linearGradient>
</defs>
</svg>
